<?xml version="1.0" encoding="UTF-8" standalone="no"?>
<!-- Created with Inkscape (http://www.inkscape.org/) -->

<svg
   xmlns:dc="http://purl.org/dc/elements/1.1/"
   xmlns:cc="http://creativecommons.org/ns#"
   xmlns:rdf="http://www.w3.org/1999/02/22-rdf-syntax-ns#"
   xmlns:svg="http://www.w3.org/2000/svg"
   xmlns="http://www.w3.org/2000/svg"
   xmlns:sodipodi="http://sodipodi.sourceforge.net/DTD/sodipodi-0.dtd"
   xmlns:inkscape="http://www.inkscape.org/namespaces/inkscape"
   id="svg2"
   version="1.1"
   inkscape:version="0.48.5 r10040"
   width="268.75"
   height="268.75"
   xml:space="preserve"
   sodipodi:docname="picto-carte-2.ai"><metadata
     id="metadata8"><rdf:RDF><cc:Work
         rdf:about=""><dc:format>image/svg+xml</dc:format><dc:type
           rdf:resource="http://purl.org/dc/dcmitype/StillImage" /><dc:title></dc:title></cc:Work></rdf:RDF></metadata><defs
     id="defs6"><clipPath
       clipPathUnits="userSpaceOnUse"
       id="clipPath16"><path
         d="M 0,215 215,215 215,0 0,0 0,215 z"
         id="path18" /></clipPath></defs><sodipodi:namedview
     pagecolor="#a99f79"
     bordercolor="#666666"
     borderopacity="1"
     objecttolerance="10"
     gridtolerance="10"
     guidetolerance="10"
     inkscape:pageopacity="0.53333333"
     inkscape:pageshadow="2"
     inkscape:window-width="640"
     inkscape:window-height="480"
     id="namedview4"
     showgrid="false"
     inkscape:zoom="0.87813953"
     inkscape:cx="134.375"
     inkscape:cy="134.375"
     inkscape:window-x="627"
     inkscape:window-y="305"
     inkscape:window-maximized="0"
     inkscape:current-layer="g10" /><g
     id="g10"
     inkscape:groupmode="layer"
     inkscape:label="picto-carte-2"
     transform="matrix(1.25,0,0,-1.25,0,268.75)"><g
       id="g12"><g
         id="g14"
         clip-path="url(#clipPath16)"><g
           id="g20"
           transform="translate(215,107.5)"><path
             d="m 0,0 c 0,-59.371 -48.129,-107.5 -107.5,-107.5 -59.371,0 -107.5,48.129 -107.5,107.5 0,59.371 48.129,107.5 107.5,107.5 C -48.129,107.5 0,59.371 0,0"
             style="fill:#ffffff;fill-opacity:1;fill-rule:nonzero;stroke:none"
             id="path22" /></g></g></g><g
       id="g24"
       transform="translate(175.5,39.4429)"><path
         d="m 0,0 -49,-9 -43,9 -44,-10 0,146.114 44,10 43,-8 49,8 L 0,0 z"
         style="fill:#8d2e86;fill-opacity:1;fill-rule:nonzero;stroke:none"
         id="path26" /></g><g
       id="g28"
       transform="translate(82.4998,185.5571)"><path
         d="M 0,0 0,-146.114"
         style="fill:none;stroke:#ffffff;stroke-opacity:1;stroke-width:3;stroke-linecap:butt;stroke-linejoin:miter;stroke-miterlimit:4;stroke-dasharray:none"
         id="path30" /></g><g
       id="g32"
       transform="translate(127.5,177.5571)"><path
         d="M 0,0 0,-147.114"
         style="fill:none;stroke:#ffffff;stroke-opacity:1;stroke-width:3;stroke-linecap:butt;stroke-linejoin:miter;stroke-miterlimit:4;stroke-dasharray:none"
         id="path34" /></g></g></svg>