<?xml version="1.0" encoding="UTF-8" standalone="no"?>
<!-- Created with Inkscape (http://www.inkscape.org/) -->

<svg
   xmlns:dc="http://purl.org/dc/elements/1.1/"
   xmlns:cc="http://creativecommons.org/ns#"
   xmlns:rdf="http://www.w3.org/1999/02/22-rdf-syntax-ns#"
   xmlns:svg="http://www.w3.org/2000/svg"
   xmlns="http://www.w3.org/2000/svg"
   xmlns:sodipodi="http://sodipodi.sourceforge.net/DTD/sodipodi-0.dtd"
   xmlns:inkscape="http://www.inkscape.org/namespaces/inkscape"
   id="svg2"
   version="1.1"
   inkscape:version="0.48.5 r10040"
   width="100"
   height="100"
   xml:space="preserve"
   sodipodi:docname="oeufs.ai"><metadata
     id="metadata8"><rdf:RDF><cc:Work
         rdf:about=""><dc:format>image/svg+xml</dc:format><dc:type
           rdf:resource="http://purl.org/dc/dcmitype/StillImage" /><dc:title></dc:title></cc:Work></rdf:RDF></metadata><defs
     id="defs6"><clipPath
       clipPathUnits="userSpaceOnUse"
       id="clipPath16"><path
         d="M 0,80 80,80 80,0 0,0 0,80 z"
         id="path18" /></clipPath><clipPath
       clipPathUnits="userSpaceOnUse"
       id="clipPath28"><path
         d="M 0,80 80,80 80,0 0,0 0,80 z"
         id="path30" /></clipPath></defs><sodipodi:namedview
     pagecolor="#ffffff"
     bordercolor="#666666"
     borderopacity="1"
     objecttolerance="10"
     gridtolerance="10"
     guidetolerance="10"
     inkscape:pageopacity="0"
     inkscape:pageshadow="2"
     inkscape:window-width="640"
     inkscape:window-height="480"
     id="namedview4"
     showgrid="false"
     inkscape:zoom="2.36"
     inkscape:cx="50"
     inkscape:cy="50"
     inkscape:window-x="0"
     inkscape:window-y="0"
     inkscape:window-maximized="0"
     inkscape:current-layer="g10" /><g
     id="g10"
     inkscape:groupmode="layer"
     inkscape:label="oeufs"
     transform="matrix(1.25,0,0,-1.25,0,100)"><g
       id="g12"><g
         id="g14"
         clip-path="url(#clipPath16)"><g
           id="g20"
           transform="translate(80,40)"><path
             d="m 0,0 c 0,-22.092 -17.908,-40 -40,-40 -22.091,0 -40,17.908 -40,40 0,22.091 17.909,40 40,40 C -17.908,40 0,22.091 0,0"
             style="fill:#63669e;fill-opacity:1;fill-rule:nonzero;stroke:none"
             id="path22" /></g></g></g><g
       id="g24"><g
         id="g26"
         clip-path="url(#clipPath28)"><g
           id="g32"
           transform="translate(30.9521,36.4727)"><path
             d="m 0,0 c 0,-6.638 -3.609,-12.02 -8.062,-12.02 -4.453,0 -8.062,5.382 -8.062,12.02 0,6.64 3.609,12.022 8.062,12.022 C -3.609,12.022 0,6.64 0,0"
             style="fill:#f7ebcd;fill-opacity:1;fill-rule:nonzero;stroke:none"
             id="path34" /></g><g
           id="g36"
           transform="translate(50.4775,36.4727)"><path
             d="m 0,0 c 0,-6.638 -3.607,-12.02 -8.059,-12.02 -4.455,0 -8.064,5.382 -8.064,12.02 0,6.64 3.609,12.022 8.064,12.022 C -3.607,12.022 0,6.64 0,0"
             style="fill:#f7ebcd;fill-opacity:1;fill-rule:nonzero;stroke:none"
             id="path38" /></g><g
           id="g40"
           transform="translate(70.0068,36.4727)"><path
             d="m 0,0 c 0,-6.638 -3.609,-12.02 -8.063,-12.02 -4.454,0 -8.061,5.382 -8.061,12.02 0,6.64 3.607,12.022 8.061,12.022 C -3.609,12.022 0,6.64 0,0"
             style="fill:#f7ebcd;fill-opacity:1;fill-rule:nonzero;stroke:none"
             id="path42" /></g><g
           id="g44"
           transform="translate(10.625,36.333)"><path
             d="m 0,0 0,-6.88 4.762,0 c 1.321,-3.948 4.05,-6.667 7.211,-6.667 3.161,0 5.889,2.719 7.21,6.667 l 5.106,0 c 1.321,-3.948 4.05,-6.667 7.212,-6.667 3.16,0 5.887,2.719 7.208,6.667 l 5.106,0 c 1.322,-3.948 4.049,-6.667 7.21,-6.667 3.163,0 5.891,2.719 7.212,6.667 L 63,-6.88 63,0 0,0 z"
             style="fill:#d3cdc2;fill-opacity:1;fill-rule:nonzero;stroke:none"
             id="path46" /></g><g
           id="g48"
           transform="translate(10.625,36.333)"><path
             d="m 0,0 0,-6.88 4.762,0 c 1.321,-3.948 4.05,-6.667 7.211,-6.667 3.161,0 5.889,2.719 7.21,6.667 l 5.106,0 c 1.321,-3.948 4.05,-6.667 7.212,-6.667 3.16,0 5.887,2.719 7.208,6.667 l 5.106,0 c 1.322,-3.948 4.049,-6.667 7.21,-6.667 3.163,0 5.891,2.719 7.212,6.667 L 63,-6.88 63,0 0,0 z"
             style="fill:none;stroke:#d3cdc2;stroke-opacity:1;stroke-width:1;stroke-linecap:butt;stroke-linejoin:miter;stroke-miterlimit:4;stroke-dasharray:none"
             id="path50" /></g></g></g></g></svg>